EESchema Schematic File Version 4
EELAYER 30 0
EELAYER END
$Descr A4 11693 8268
encoding utf-8
Sheet 1 3
Title "Raspberry Pi - Z80 Controller - Z80"
Date "2021-03-29"
Rev "1.1"
Comp "RPL"
Comment1 "Based on:  https://www.hackster.io/james-fitzjohn/raspberry-pi-to-z80-interface-0bfbeb"
Comment2 "https://gitlab.com/MakerinAsia/RPi-Z80_Controller/"
Comment3 ""
Comment4 ""
$EndDescr
$Comp
L Switch:SW_Push SW1
U 1 1 5EBE4074
P 3935 1640
F 0 "SW1" V 3865 1805 50  0000 C CNN
F 1 "SW_Push" V 4100 1830 50  0000 C CNN
F 2 "Pauls_KiCAD_Libraries:SMD_Switch_SPST_SKQG_WithStem_6.5x5" H 3935 1840 50  0001 C CNN
F 3 "~" H 3935 1840 50  0001 C CNN
	1    3935 1640
	0    1    1    0   
$EndComp
$Comp
L Connector:Raspberry_Pi_2_3 J2
U 1 1 6023C545
P 9065 4185
F 0 "J2" H 9065 5666 50  0000 C CNN
F 1 "Raspberry_Pi_2_3" H 9630 5445 50  0000 C CNN
F 2 "Connector_PinSocket_2.54mm:PinSocket_2x20_P2.54mm_Vertical" H 9065 4185 50  0001 C CNN
F 3 "https://www.raspberrypi.org/documentation/hardware/raspberrypi/schematics/rpi_SCH_3bplus_1p0_reduced.pdf" H 9065 4185 50  0001 C CNN
	1    9065 4185
	1    0    0    -1  
$EndComp
$Sheet
S 2235 6325 1260 735 
U 6024091D
F0 "Z80" 50
F1 "Z80.sch" 50
$EndSheet
$Sheet
S 3915 6340 1200 720 
U 6024CE94
F0 "Power" 50
F1 "Power.sch" 50
$EndSheet
Text GLabel 10130 3685 2    50   Input ~ 0
i2C_SCL
Text GLabel 10130 3585 2    50   Input ~ 0
i2C_SDA
$Comp
L power:GND #PWR016
U 1 1 6024F585
P 9365 5575
F 0 "#PWR016" H 9365 5325 50  0001 C CNN
F 1 "GND" H 9370 5402 50  0000 C CNN
F 2 "" H 9365 5575 50  0001 C CNN
F 3 "" H 9365 5575 50  0001 C CNN
	1    9365 5575
	1    0    0    -1  
$EndComp
$Comp
L power:+5V #PWR010
U 1 1 60250051
P 8865 2215
F 0 "#PWR010" H 8865 2065 50  0001 C CNN
F 1 "+5V" H 8880 2388 50  0000 C CNN
F 2 "" H 8865 2215 50  0001 C CNN
F 3 "" H 8865 2215 50  0001 C CNN
	1    8865 2215
	1    0    0    -1  
$EndComp
Wire Wire Line
	8965 2885 8865 2885
Wire Wire Line
	8865 2885 8865 2680
Connection ~ 8865 2885
Wire Wire Line
	9365 5485 9365 5535
Wire Wire Line
	9865 3685 10130 3685
Wire Wire Line
	10130 3585 9865 3585
Wire Wire Line
	8665 5485 8665 5535
Wire Wire Line
	8665 5535 8765 5535
Connection ~ 9365 5535
Wire Wire Line
	9365 5535 9365 5575
Wire Wire Line
	8765 5485 8765 5535
Connection ~ 8765 5535
Wire Wire Line
	8765 5535 8865 5535
Wire Wire Line
	8865 5485 8865 5535
Connection ~ 8865 5535
Wire Wire Line
	8865 5535 8965 5535
Wire Wire Line
	8965 5485 8965 5535
Connection ~ 8965 5535
Wire Wire Line
	8965 5535 9065 5535
Wire Wire Line
	9065 5485 9065 5535
Connection ~ 9065 5535
Wire Wire Line
	9065 5535 9165 5535
Wire Wire Line
	9165 5485 9165 5535
Connection ~ 9165 5535
Wire Wire Line
	9165 5535 9265 5535
Wire Wire Line
	9265 5485 9265 5535
Connection ~ 9265 5535
Wire Wire Line
	9265 5535 9365 5535
Wire Wire Line
	1885 2015 1885 2065
Connection ~ 1885 2015
Wire Wire Line
	2275 2015 1885 2015
Wire Wire Line
	2275 1970 2275 2015
Wire Wire Line
	2275 1685 2365 1685
Connection ~ 2275 1685
Wire Wire Line
	2275 1770 2275 1685
Wire Wire Line
	2185 1685 2275 1685
Wire Wire Line
	1885 1885 1885 2015
Wire Wire Line
	1885 1195 1885 1125
Wire Wire Line
	1835 1195 1885 1195
Wire Wire Line
	1885 1395 1835 1395
Wire Wire Line
	1885 1485 1885 1395
$Comp
L power:GND #PWR09
U 1 1 60259F15
P 1885 2065
F 0 "#PWR09" H 1885 1815 50  0001 C CNN
F 1 "GND" H 1890 1892 50  0000 C CNN
F 2 "" H 1885 2065 50  0001 C CNN
F 3 "" H 1885 2065 50  0001 C CNN
	1    1885 2065
	-1   0    0    -1  
$EndComp
$Comp
L Device:R_Small R3
U 1 1 602595CE
P 2465 1685
F 0 "R3" V 2365 1640 50  0000 L CNN
F 1 "150R" V 2550 1595 50  0000 L CNN
F 2 "Resistor_SMD:R_0603_1608Metric" H 2465 1685 50  0001 C CNN
F 3 "~" H 2465 1685 50  0001 C CNN
	1    2465 1685
	0    -1   1    0   
$EndComp
$Comp
L Pauls_Symbol_Library:Buzzer_2Pin BZ1
U 1 1 60253A84
P 1735 1295
F 0 "BZ1" H 1888 1324 50  0000 L CNN
F 1 "Buzzer_2Pin" H 1888 1233 50  0000 L CNN
F 2 "Pauls_KiCAD_Libraries:Buzzer" V 1710 1395 50  0001 C CNN
F 3 "" V 1710 1395 50  0001 C CNN
	1    1735 1295
	-1   0    0    -1  
$EndComp
$Comp
L Device:R_Small R4
U 1 1 5EBE2709
P 2275 1870
F 0 "R4" H 2334 1916 50  0000 L CNN
F 1 "10KR" H 2334 1825 50  0000 L CNN
F 2 "Resistor_SMD:R_0603_1608Metric" H 2275 1870 50  0001 C CNN
F 3 "~" H 2275 1870 50  0001 C CNN
	1    2275 1870
	-1   0    0    -1  
$EndComp
$Comp
L Device:C_Small C?
U 1 1 60934351
P 8665 2450
AR Path="/6024091D/60934351" Ref="C?"  Part="1" 
AR Path="/60934351" Ref="C6"  Part="1" 
F 0 "C6" V 8730 2565 50  0000 C CNN
F 1 "4.7uF" V 8760 2360 50  0000 C CNN
F 2 "Capacitor_SMD:C_0805_2012Metric" H 8665 2450 50  0001 C CNN
F 3 "~" H 8665 2450 50  0001 C CNN
	1    8665 2450
	0    -1   -1   0   
$EndComp
Wire Wire Line
	8765 2680 8865 2680
Connection ~ 8865 2680
Wire Wire Line
	8865 2215 8865 2450
Wire Wire Line
	8765 2450 8865 2450
Connection ~ 8865 2450
Wire Wire Line
	8865 2450 8865 2680
Wire Wire Line
	8565 2450 8455 2450
Wire Wire Line
	8455 2450 8455 2680
Wire Wire Line
	8565 2680 8455 2680
Connection ~ 8455 2680
Wire Wire Line
	8455 2680 8455 2705
$Comp
L power:GND #PWR013
U 1 1 6093929C
P 8455 2705
F 0 "#PWR013" H 8455 2455 50  0001 C CNN
F 1 "GND" H 8460 2532 50  0000 C CNN
F 2 "" H 8455 2705 50  0001 C CNN
F 3 "" H 8455 2705 50  0001 C CNN
	1    8455 2705
	-1   0    0    -1  
$EndComp
$Comp
L Device:R_Small R1
U 1 1 609399C2
P 3935 1275
F 0 "R1" H 3994 1321 50  0000 L CNN
F 1 "10KR" H 3994 1230 50  0000 L CNN
F 2 "Resistor_SMD:R_0603_1608Metric" H 3935 1275 50  0001 C CNN
F 3 "~" H 3935 1275 50  0001 C CNN
	1    3935 1275
	-1   0    0    -1  
$EndComp
$Comp
L Device:C_Small C?
U 1 1 6093B525
P 3750 1650
AR Path="/6024091D/6093B525" Ref="C?"  Part="1" 
AR Path="/6093B525" Ref="C3"  Part="1" 
F 0 "C3" H 3690 1560 50  0000 C CNN
F 1 "100nF" H 3885 1725 50  0000 C CNN
F 2 "Capacitor_SMD:C_0805_2012Metric" H 3750 1650 50  0001 C CNN
F 3 "~" H 3750 1650 50  0001 C CNN
	1    3750 1650
	-1   0    0    1   
$EndComp
$Comp
L power:+3.3V #PWR011
U 1 1 6093C244
P 9265 2215
F 0 "#PWR011" H 9265 2065 50  0001 C CNN
F 1 "+3.3V" H 9280 2388 50  0000 C CNN
F 2 "" H 9265 2215 50  0001 C CNN
F 3 "" H 9265 2215 50  0001 C CNN
	1    9265 2215
	1    0    0    -1  
$EndComp
Wire Wire Line
	9265 2885 9265 2835
Wire Wire Line
	9165 2885 9165 2835
Wire Wire Line
	9165 2835 9265 2835
Connection ~ 9265 2835
$Comp
L power:+3.3V #PWR02
U 1 1 6093E16C
P 3935 1100
F 0 "#PWR02" H 3935 950 50  0001 C CNN
F 1 "+3.3V" H 3950 1273 50  0000 C CNN
F 2 "" H 3935 1100 50  0001 C CNN
F 3 "" H 3935 1100 50  0001 C CNN
	1    3935 1100
	1    0    0    -1  
$EndComp
$Comp
L power:GND #PWR07
U 1 1 6093EFCC
P 3935 1895
F 0 "#PWR07" H 3935 1645 50  0001 C CNN
F 1 "GND" H 3940 1722 50  0000 C CNN
F 2 "" H 3935 1895 50  0001 C CNN
F 3 "" H 3935 1895 50  0001 C CNN
	1    3935 1895
	-1   0    0    -1  
$EndComp
Wire Wire Line
	3935 1840 3935 1870
Wire Wire Line
	3750 1870 3935 1870
Connection ~ 3935 1870
Wire Wire Line
	3935 1870 3935 1895
Wire Wire Line
	3935 1440 3935 1400
Wire Wire Line
	3750 1550 3750 1400
Wire Wire Line
	3750 1400 3935 1400
Connection ~ 3935 1400
Wire Wire Line
	3935 1400 3935 1375
Wire Wire Line
	3935 1175 3935 1100
Wire Wire Line
	3930 1400 3935 1400
Text GLabel 4160 1400 2    50   Input ~ 0
SW_GPIO23
Wire Wire Line
	4160 1400 3935 1400
Text GLabel 8175 4485 0    50   Input ~ 0
SW_GPIO23
Wire Wire Line
	8265 3685 8165 3685
Text GLabel 8165 3585 0    50   Input ~ 0
LED_GPIO16
Wire Wire Line
	8265 3585 8165 3585
Text GLabel 8170 4385 0    50   Input ~ 0
BZ_GPIO22
Wire Wire Line
	8265 4385 8170 4385
Text GLabel 2650 1685 2    50   Input ~ 0
BZ_GPIO22
Wire Wire Line
	2650 1685 2565 1685
$Comp
L Connector:Conn_01x04_Male J1
U 1 1 60A145BC
P 7635 1520
F 0 "J1" H 7740 1710 50  0000 R CNN
F 1 "i2C OLED" H 7850 1215 50  0000 R CNN
F 2 "Connector_PinHeader_2.54mm:PinHeader_1x04_P2.54mm_Vertical" H 7635 1520 50  0001 C CNN
F 3 "~" H 7635 1520 50  0001 C CNN
	1    7635 1520
	-1   0    0    1   
$EndComp
$Comp
L power:GND #PWR06
U 1 1 60A1701A
P 7350 1665
F 0 "#PWR06" H 7350 1415 50  0001 C CNN
F 1 "GND" H 7355 1492 50  0000 C CNN
F 2 "" H 7350 1665 50  0001 C CNN
F 3 "" H 7350 1665 50  0001 C CNN
	1    7350 1665
	-1   0    0    -1  
$EndComp
$Comp
L power:+3.3V #PWR01
U 1 1 60A179DF
P 1885 1095
F 0 "#PWR01" H 1885 945 50  0001 C CNN
F 1 "+3.3V" H 1900 1268 50  0000 C CNN
F 2 "" H 1885 1095 50  0001 C CNN
F 3 "" H 1885 1095 50  0001 C CNN
	1    1885 1095
	1    0    0    -1  
$EndComp
$Comp
L power:+3.3V #PWR04
U 1 1 60A18192
P 7355 1225
F 0 "#PWR04" H 7355 1075 50  0001 C CNN
F 1 "+3.3V" H 7370 1398 50  0000 C CNN
F 2 "" H 7355 1225 50  0001 C CNN
F 3 "" H 7355 1225 50  0001 C CNN
	1    7355 1225
	1    0    0    -1  
$EndComp
Wire Wire Line
	7435 1620 7350 1620
Wire Wire Line
	7350 1620 7350 1665
Wire Wire Line
	7435 1520 7355 1520
Wire Wire Line
	7355 1520 7355 1250
Text GLabel 7320 1420 0    50   Input ~ 0
i2C_SCL
Text GLabel 7320 1320 0    50   Input ~ 0
i2C_SDA
Wire Wire Line
	7435 1420 7320 1420
Wire Wire Line
	7320 1320 7435 1320
Text Notes 7690 1660 0    50   ~ 0
GND
Text Notes 7690 1550 0    50   ~ 0
Vcc
Text Notes 7685 1455 0    50   ~ 0
SCL
Text Notes 7680 1360 0    50   ~ 0
SDA
Text GLabel 8165 3685 0    50   Input ~ 0
LED_GPIO17
NoConn ~ 8265 3285
NoConn ~ 8265 3385
NoConn ~ 8265 3985
NoConn ~ 8265 4085
NoConn ~ 8265 4185
NoConn ~ 8265 4785
NoConn ~ 8265 4685
NoConn ~ 8265 4585
Wire Wire Line
	8265 4485 8175 4485
NoConn ~ 9865 4985
NoConn ~ 9865 4885
NoConn ~ 9865 4685
NoConn ~ 9865 4585
NoConn ~ 9865 4485
NoConn ~ 9865 4385
NoConn ~ 9865 4285
NoConn ~ 9865 4085
NoConn ~ 9865 3985
NoConn ~ 9865 3885
NoConn ~ 9865 3385
NoConn ~ 9865 3285
$Comp
L Device:C_Small C?
U 1 1 6093434B
P 8665 2680
AR Path="/6024091D/6093434B" Ref="C?"  Part="1" 
AR Path="/6093434B" Ref="C8"  Part="1" 
F 0 "C8" V 8605 2565 50  0000 C CNN
F 1 "100nF" V 8765 2745 50  0000 C CNN
F 2 "Capacitor_SMD:C_0805_2012Metric" H 8665 2680 50  0001 C CNN
F 3 "~" H 8665 2680 50  0001 C CNN
	1    8665 2680
	0    1    1    0   
$EndComp
$Comp
L Device:C_Small C?
U 1 1 60BC1F52
P 9445 2370
AR Path="/6024091D/60BC1F52" Ref="C?"  Part="1" 
AR Path="/60BC1F52" Ref="C5"  Part="1" 
F 0 "C5" V 9505 2270 50  0000 C CNN
F 1 "4.7uF" V 9495 2520 50  0000 C CNN
F 2 "Capacitor_SMD:C_0805_2012Metric" H 9445 2370 50  0001 C CNN
F 3 "~" H 9445 2370 50  0001 C CNN
	1    9445 2370
	0    1    -1   0   
$EndComp
Wire Wire Line
	9545 2370 9655 2370
Wire Wire Line
	9655 2370 9655 2600
Wire Wire Line
	9545 2600 9655 2600
Connection ~ 9655 2600
Wire Wire Line
	9655 2600 9655 2625
$Comp
L power:GND #PWR012
U 1 1 60BC21A5
P 9655 2625
F 0 "#PWR012" H 9655 2375 50  0001 C CNN
F 1 "GND" H 9760 2510 50  0000 C CNN
F 2 "" H 9655 2625 50  0001 C CNN
F 3 "" H 9655 2625 50  0001 C CNN
	1    9655 2625
	1    0    0    -1  
$EndComp
$Comp
L Device:C_Small C?
U 1 1 60BC21AF
P 9445 2600
AR Path="/6024091D/60BC21AF" Ref="C?"  Part="1" 
AR Path="/60BC21AF" Ref="C7"  Part="1" 
F 0 "C7" V 9390 2700 50  0000 C CNN
F 1 "100nF" V 9545 2665 50  0000 C CNN
F 2 "Capacitor_SMD:C_0805_2012Metric" H 9445 2600 50  0001 C CNN
F 3 "~" H 9445 2600 50  0001 C CNN
	1    9445 2600
	0    -1   1    0   
$EndComp
Wire Wire Line
	9265 2215 9265 2370
Wire Wire Line
	9345 2370 9265 2370
Connection ~ 9265 2370
Wire Wire Line
	9265 2370 9265 2600
Wire Wire Line
	9345 2600 9265 2600
Connection ~ 9265 2600
Wire Wire Line
	9265 2600 9265 2835
Wire Wire Line
	3750 1750 3750 1870
$Comp
L Mechanical:MountingHole H1
U 1 1 60C6823B
P 665 680
F 0 "H1" H 765 726 50  0000 L CNN
F 1 "M3" H 765 635 50  0000 L CNN
F 2 "MountingHole:MountingHole_3.2mm_M3" H 665 680 50  0001 C CNN
F 3 "~" H 665 680 50  0001 C CNN
	1    665  680 
	1    0    0    -1  
$EndComp
$Comp
L Mechanical:MountingHole H3
U 1 1 60C687D7
P 670 865
F 0 "H3" H 770 911 50  0000 L CNN
F 1 "M3" H 770 820 50  0000 L CNN
F 2 "MountingHole:MountingHole_3.2mm_M3" H 670 865 50  0001 C CNN
F 3 "~" H 670 865 50  0001 C CNN
	1    670  865 
	1    0    0    -1  
$EndComp
$Comp
L Mechanical:MountingHole H5
U 1 1 60C68BCA
P 665 1050
F 0 "H5" H 765 1096 50  0000 L CNN
F 1 "M3" H 765 1005 50  0000 L CNN
F 2 "MountingHole:MountingHole_3.2mm_M3" H 665 1050 50  0001 C CNN
F 3 "~" H 665 1050 50  0001 C CNN
	1    665  1050
	1    0    0    -1  
$EndComp
Text GLabel 8165 3785 0    50   Input ~ 0
LED_GPIO18
Wire Wire Line
	8265 3785 8165 3785
$Comp
L Mechanical:MountingHole H2
U 1 1 60F63AFE
P 10800 760
F 0 "H2" H 10900 806 50  0000 L CNN
F 1 "M3" H 10900 715 50  0000 L CNN
F 2 "MountingHole:MountingHole_3.2mm_M3" H 10800 760 50  0001 C CNN
F 3 "~" H 10800 760 50  0001 C CNN
	1    10800 760 
	1    0    0    -1  
$EndComp
$Comp
L Mechanical:MountingHole H4
U 1 1 60F63DA6
P 10795 945
F 0 "H4" H 10895 991 50  0000 L CNN
F 1 "M3" H 10895 900 50  0000 L CNN
F 2 "MountingHole:MountingHole_3.2mm_M3" H 10795 945 50  0001 C CNN
F 3 "~" H 10795 945 50  0001 C CNN
	1    10795 945 
	1    0    0    -1  
$EndComp
$Comp
L Mechanical:MountingHole H6
U 1 1 60F63DB0
P 10795 1125
F 0 "H6" H 10895 1171 50  0000 L CNN
F 1 "M3" H 10895 1080 50  0000 L CNN
F 2 "MountingHole:MountingHole_3.2mm_M3" H 10795 1125 50  0001 C CNN
F 3 "~" H 10795 1125 50  0001 C CNN
	1    10795 1125
	1    0    0    -1  
$EndComp
$Comp
L Mechanical:MountingHole H7
U 1 1 60F63DBA
P 10790 1305
F 0 "H7" H 10890 1351 50  0000 L CNN
F 1 "M3" H 10890 1260 50  0000 L CNN
F 2 "MountingHole:MountingHole_3.2mm_M3" H 10790 1305 50  0001 C CNN
F 3 "~" H 10790 1305 50  0001 C CNN
	1    10790 1305
	1    0    0    -1  
$EndComp
Text Notes 10640 595  0    50   ~ 0
RPi Mounting
Text Notes 515  555  0    50   ~ 0
Outside mount
$Comp
L Device:C_Small C?
U 1 1 60FA6A98
P 2075 1255
AR Path="/6024091D/60FA6A98" Ref="C?"  Part="1" 
AR Path="/60FA6A98" Ref="C1"  Part="1" 
F 0 "C1" H 1970 1160 50  0000 C CNN
F 1 "100nF" H 1925 1345 50  0000 C CNN
F 2 "Capacitor_SMD:C_0805_2012Metric" H 2075 1255 50  0001 C CNN
F 3 "~" H 2075 1255 50  0001 C CNN
	1    2075 1255
	-1   0    0    1   
$EndComp
Wire Wire Line
	2075 1155 2075 1125
Wire Wire Line
	2075 1125 1885 1125
Connection ~ 1885 1125
Wire Wire Line
	1885 1125 1885 1095
$Comp
L power:GND #PWR05
U 1 1 60FA959A
P 2075 1410
F 0 "#PWR05" H 2075 1160 50  0001 C CNN
F 1 "GND" H 2080 1237 50  0000 C CNN
F 2 "" H 2075 1410 50  0001 C CNN
F 3 "" H 2075 1410 50  0001 C CNN
	1    2075 1410
	-1   0    0    -1  
$EndComp
Wire Wire Line
	2075 1355 2075 1410
Wire Notes Line
	1040 720  3160 720 
Wire Notes Line
	3160 720  3160 2415
Wire Notes Line
	3160 2415 1040 2415
Wire Notes Line
	1040 2415 1040 715 
Wire Notes Line
	3455 735  4780 735 
Wire Notes Line
	4780 735  4780 2415
Wire Notes Line
	4780 2415 3300 2415
Wire Notes Line
	3300 2415 3300 735 
Wire Notes Line
	3300 735  3445 735 
Wire Notes Line
	8180 725  8180 2415
Wire Notes Line
	8180 2415 6580 2415
Wire Notes Line
	6580 2415 6580 725 
Text Notes 6630 855  0    50   ~ 0
128 x 64px i2C OLED Screen
Text Notes 3355 850  0    50   ~ 0
User RPi Switch
Text Notes 1145 845  0    50   ~ 0
User RPi Buzzer
Wire Notes Line
	6580 725  8170 725 
$Comp
L Transistor_FET:AO3400A Q1
U 1 1 611A365D
P 1985 1685
F 0 "Q1" H 2190 1731 50  0000 L CNN
F 1 "AO3400A" H 2190 1640 50  0000 L CNN
F 2 "Package_TO_SOT_SMD:SOT-23" H 2185 1610 50  0001 L CIN
F 3 "http://www.aosmd.com/pdfs/datasheet/AO3400A.pdf" H 1985 1685 50  0001 L CNN
	1    1985 1685
	-1   0    0    -1  
$EndComp
$Comp
L Mechanical:MountingHole H8
U 1 1 612BC209
P 6735 2260
F 0 "H8" H 6835 2306 50  0000 L CNN
F 1 "M3" H 6835 2215 50  0000 L CNN
F 2 "MountingHole:MountingHole_3.2mm_M3" H 6735 2260 50  0001 C CNN
F 3 "~" H 6735 2260 50  0001 C CNN
	1    6735 2260
	1    0    0    -1  
$EndComp
Text Notes 7020 2300 0    50   ~ 0
OLED Mounting Hole
$Comp
L Transistor_FET:BSS138 Q2
U 1 1 6057DBAB
P 2505 3250
F 0 "Q2" V 2465 3060 50  0000 C CNN
F 1 "BSS138" V 2440 3475 50  0000 C CNN
F 2 "Package_TO_SOT_SMD:SOT-23" H 2705 3175 50  0001 L CIN
F 3 "https://www.onsemi.com/pub/Collateral/BSS138-D.PDF" H 2505 3250 50  0001 L CNN
	1    2505 3250
	0    1    1    0   
$EndComp
$Comp
L Device:R_Small R5
U 1 1 60580ABE
P 1975 3060
F 0 "R5" H 2034 3106 50  0000 L CNN
F 1 "10KR" H 2030 3015 50  0000 L CNN
F 2 "Resistor_SMD:R_0603_1608Metric" H 1975 3060 50  0001 C CNN
F 3 "~" H 1975 3060 50  0001 C CNN
	1    1975 3060
	-1   0    0    -1  
$EndComp
$Comp
L Device:R_Small R6
U 1 1 60580E63
P 2100 3060
F 0 "R6" H 1915 3095 50  0000 L CNN
F 1 "10KR" H 1865 3015 50  0000 L CNN
F 2 "Resistor_SMD:R_0603_1608Metric" H 2100 3060 50  0001 C CNN
F 3 "~" H 2100 3060 50  0001 C CNN
	1    2100 3060
	-1   0    0    -1  
$EndComp
$Comp
L Transistor_FET:BSS138 Q3
U 1 1 60582D0A
P 2995 3465
F 0 "Q3" V 2955 3275 50  0000 C CNN
F 1 "BSS138" V 2930 3690 50  0000 C CNN
F 2 "Package_TO_SOT_SMD:SOT-23" H 3195 3390 50  0001 L CIN
F 3 "https://www.onsemi.com/pub/Collateral/BSS138-D.PDF" H 2995 3465 50  0001 L CNN
	1    2995 3465
	0    1    1    0   
$EndComp
$Comp
L Device:R_Small R7
U 1 1 6058528B
P 3350 3105
F 0 "R7" H 3409 3151 50  0000 L CNN
F 1 "10KR" H 3405 3060 50  0000 L CNN
F 2 "Resistor_SMD:R_0603_1608Metric" H 3350 3105 50  0001 C CNN
F 3 "~" H 3350 3105 50  0001 C CNN
	1    3350 3105
	-1   0    0    -1  
$EndComp
$Comp
L Device:R_Small R8
U 1 1 60585291
P 3475 3105
F 0 "R8" H 3285 3145 50  0000 L CNN
F 1 "10KR" H 3240 3060 50  0000 L CNN
F 2 "Resistor_SMD:R_0603_1608Metric" H 3475 3105 50  0001 C CNN
F 3 "~" H 3475 3105 50  0001 C CNN
	1    3475 3105
	-1   0    0    -1  
$EndComp
Text GLabel 1860 3350 0    50   Input ~ 0
i2C_SCL
Text GLabel 1865 3565 0    50   Input ~ 0
i2C_SDA
Wire Wire Line
	2305 3350 1975 3350
Wire Wire Line
	2795 3565 2100 3565
Wire Wire Line
	1975 3160 1975 3350
Connection ~ 1975 3350
Wire Wire Line
	1975 3350 1860 3350
Wire Wire Line
	2100 3160 2100 3565
Connection ~ 2100 3565
Wire Wire Line
	2100 3565 1865 3565
Wire Wire Line
	2705 3350 3350 3350
Wire Wire Line
	3350 3205 3350 3350
Connection ~ 3350 3350
Wire Wire Line
	3350 3350 3835 3350
Wire Wire Line
	3195 3565 3475 3565
Wire Wire Line
	3475 3205 3475 3565
Connection ~ 3475 3565
Wire Wire Line
	3475 3565 3835 3565
$Comp
L power:+3.3V #PWR014
U 1 1 6059F37F
P 2100 2835
F 0 "#PWR014" H 2100 2685 50  0001 C CNN
F 1 "+3.3V" H 2270 2895 50  0000 C CNN
F 2 "" H 2100 2835 50  0001 C CNN
F 3 "" H 2100 2835 50  0001 C CNN
	1    2100 2835
	1    0    0    -1  
$EndComp
Wire Wire Line
	1975 2960 1975 2865
Wire Wire Line
	1975 2865 2100 2865
Wire Wire Line
	2100 2865 2100 2960
Wire Wire Line
	2100 2865 2100 2835
Connection ~ 2100 2865
Wire Wire Line
	2100 2865 2505 2865
Wire Wire Line
	2505 2865 2505 3050
Wire Wire Line
	2505 2865 2995 2865
Wire Wire Line
	2995 2865 2995 3265
Connection ~ 2505 2865
Wire Wire Line
	3350 3005 3350 2870
Wire Wire Line
	3350 2870 3475 2870
Wire Wire Line
	3475 2870 3475 3005
Wire Wire Line
	3475 2870 3475 2835
Connection ~ 3475 2870
$Comp
L power:+5V #PWR015
U 1 1 605B4AF1
P 3475 2835
F 0 "#PWR015" H 3475 2685 50  0001 C CNN
F 1 "+5V" H 3595 2870 50  0000 C CNN
F 2 "" H 3475 2835 50  0001 C CNN
F 3 "" H 3475 2835 50  0001 C CNN
	1    3475 2835
	1    0    0    -1  
$EndComp
Text GLabel 3835 3350 2    50   Input ~ 0
SCL
Text GLabel 3835 3565 2    50   Input ~ 0
SDA
Wire Notes Line
	1910 2585 1280 2585
Wire Notes Line
	1280 2585 1280 3835
Wire Notes Line
	1280 3835 4145 3835
Wire Notes Line
	4145 3835 4145 2585
Wire Notes Line
	4145 2585 1915 2585
Text Notes 1325 2695 0    50   ~ 0
i2C Level Translator
$Comp
L Device:C_Small C?
U 1 1 608059F5
P 6830 1350
AR Path="/6024091D/608059F5" Ref="C?"  Part="1" 
AR Path="/608059F5" Ref="C2"  Part="1" 
F 0 "C2" H 6965 1260 50  0000 C CNN
F 1 "100nF" H 6950 1430 50  0000 C CNN
F 2 "Capacitor_SMD:C_0805_2012Metric" H 6830 1350 50  0001 C CNN
F 3 "~" H 6830 1350 50  0001 C CNN
	1    6830 1350
	-1   0    0    1   
$EndComp
Wire Wire Line
	7355 1250 6830 1250
Connection ~ 7355 1250
Wire Wire Line
	7355 1250 7355 1225
Wire Wire Line
	6830 1450 6830 1620
Wire Wire Line
	6830 1620 7350 1620
Connection ~ 7350 1620
$Comp
L Switch:SW_Push SW2
U 1 1 608C30E3
P 5575 1640
F 0 "SW2" V 5505 1805 50  0000 C CNN
F 1 "SW_Push" V 5740 1830 50  0000 C CNN
F 2 "Pauls_KiCAD_Libraries:SMD_Switch_SPST_SKQG_WithStem_6.5x5" H 5575 1840 50  0001 C CNN
F 3 "~" H 5575 1840 50  0001 C CNN
	1    5575 1640
	0    1    1    0   
$EndComp
$Comp
L Device:R_Small R2
U 1 1 608C30E9
P 5575 1275
F 0 "R2" H 5634 1321 50  0000 L CNN
F 1 "10KR" H 5634 1230 50  0000 L CNN
F 2 "Resistor_SMD:R_0603_1608Metric" H 5575 1275 50  0001 C CNN
F 3 "~" H 5575 1275 50  0001 C CNN
	1    5575 1275
	-1   0    0    -1  
$EndComp
$Comp
L Device:C_Small C?
U 1 1 608C30EF
P 5390 1650
AR Path="/6024091D/608C30EF" Ref="C?"  Part="1" 
AR Path="/608C30EF" Ref="C4"  Part="1" 
F 0 "C4" H 5330 1560 50  0000 C CNN
F 1 "100nF" H 5525 1725 50  0000 C CNN
F 2 "Capacitor_SMD:C_0805_2012Metric" H 5390 1650 50  0001 C CNN
F 3 "~" H 5390 1650 50  0001 C CNN
	1    5390 1650
	-1   0    0    1   
$EndComp
$Comp
L power:+3.3V #PWR03
U 1 1 608C30F5
P 5575 1100
F 0 "#PWR03" H 5575 950 50  0001 C CNN
F 1 "+3.3V" H 5590 1273 50  0000 C CNN
F 2 "" H 5575 1100 50  0001 C CNN
F 3 "" H 5575 1100 50  0001 C CNN
	1    5575 1100
	1    0    0    -1  
$EndComp
$Comp
L power:GND #PWR08
U 1 1 608C30FB
P 5575 1895
F 0 "#PWR08" H 5575 1645 50  0001 C CNN
F 1 "GND" H 5580 1722 50  0000 C CNN
F 2 "" H 5575 1895 50  0001 C CNN
F 3 "" H 5575 1895 50  0001 C CNN
	1    5575 1895
	-1   0    0    -1  
$EndComp
Wire Wire Line
	5575 1840 5575 1870
Wire Wire Line
	5390 1870 5575 1870
Connection ~ 5575 1870
Wire Wire Line
	5575 1870 5575 1895
Wire Wire Line
	5575 1440 5575 1400
Wire Wire Line
	5390 1550 5390 1400
Wire Wire Line
	5390 1400 5575 1400
Connection ~ 5575 1400
Wire Wire Line
	5575 1400 5575 1375
Wire Wire Line
	5575 1175 5575 1100
Wire Wire Line
	5570 1400 5575 1400
Wire Wire Line
	5800 1400 5575 1400
Wire Wire Line
	5390 1750 5390 1870
Wire Notes Line
	5095 735  6420 735 
Wire Notes Line
	6420 735  6420 2415
Wire Notes Line
	6420 2415 4940 2415
Wire Notes Line
	4940 2415 4940 735 
Wire Notes Line
	4940 735  5085 735 
Text Notes 4995 850  0    50   ~ 0
User RPi Switch
Text GLabel 8190 4885 0    50   Input ~ 0
SW_GPIO27
Wire Wire Line
	8265 4885 8190 4885
Text GLabel 5800 1400 2    50   Input ~ 0
SW_GPIO27
$EndSCHEMATC
