EESchema Schematic File Version 4
EELAYER 30 0
EELAYER END
$Descr A3 16535 11693
encoding utf-8
Sheet 2 3
Title "Raspberry Pi - Z80 Controller - Z80"
Date "2021-03-29"
Rev "1.1"
Comp "RPL"
Comment1 "Based on:  https://www.hackster.io/james-fitzjohn/raspberry-pi-to-z80-interface-0bfbeb"
Comment2 "https://gitlab.com/MakerinAsia/RPi-Z80_Controller/"
Comment3 ""
Comment4 ""
$EndDescr
$Comp
L Interface_Expansion:MCP23017_SS U?
U 1 1 60244B5B
P 2965 2660
AR Path="/60244B5B" Ref="U?"  Part="1" 
AR Path="/6024091D/60244B5B" Ref="U1"  Part="1" 
F 0 "U1" H 3075 3640 50  0000 C CNN
F 1 "MCP23017_SS" H 2615 3645 50  0000 C CNN
F 2 "Package_SO:SSOP-28_5.3x10.2mm_P0.65mm" H 3165 1660 50  0001 L CNN
F 3 "http://ww1.microchip.com/downloads/en/DeviceDoc/20001952C.pdf" H 3165 1560 50  0001 L CNN
F 4 "https://www.x-on.com.au/mpn/microchip/mcp23017ess" H 2965 2660 50  0001 C CNN "Suppler1_PN"
	1    2965 2660
	1    0    0    -1  
$EndComp
$Comp
L CPU:Z80CPU U?
U 1 1 60244B61
P 7830 8110
AR Path="/60244B61" Ref="U?"  Part="1" 
AR Path="/6024091D/60244B61" Ref="U3"  Part="1" 
F 0 "U3" H 7730 6705 50  0000 C CNN
F 1 "Z80CPU" H 8215 6705 50  0000 C CNN
F 2 "Socket:DIP_Socket-40_W11.9_W12.7_W15.24_W17.78_W18.5_3M_240-1280-00-0602J" H 7830 8510 50  0001 C CNN
F 3 "www.zilog.com/manage_directlink.php?filepath=docs/z80/um0080" H 7830 8510 50  0001 C CNN
	1    7830 8110
	-1   0    0    1   
$EndComp
$Comp
L Interface_Expansion:MCP23017_SS U?
U 1 1 60249784
P 2965 8690
AR Path="/60249784" Ref="U?"  Part="1" 
AR Path="/6024091D/60249784" Ref="U4"  Part="1" 
F 0 "U4" H 3075 9690 50  0000 C CNN
F 1 "MCP23017_SS" H 2595 9680 50  0000 C CNN
F 2 "Package_SO:SSOP-28_5.3x10.2mm_P0.65mm" H 3165 7690 50  0001 L CNN
F 3 "http://ww1.microchip.com/downloads/en/DeviceDoc/20001952C.pdf" H 3165 7590 50  0001 L CNN
F 4 "https://www.x-on.com.au/mpn/microchip/mcp23017ess" H 2965 8690 50  0001 C CNN "Suppler1_PN"
	1    2965 8690
	1    0    0    -1  
$EndComp
Text GLabel 2175 7990 0    50   Input ~ 0
SCL
Text GLabel 2175 7890 0    50   Input ~ 0
SDA
Text GLabel 2130 4880 0    50   Input ~ 0
SCL
Text GLabel 2130 4780 0    50   Input ~ 0
SDA
Text GLabel 2140 1960 0    50   Input ~ 0
SCL
Text GLabel 2140 1860 0    50   Input ~ 0
SDA
Wire Wire Line
	2265 1860 2140 1860
Wire Wire Line
	2265 1960 2140 1960
Wire Wire Line
	2260 4780 2130 4780
Wire Wire Line
	2260 4880 2130 4880
$Comp
L power:GND #PWR036
U 1 1 6027AFFB
P 2965 9890
F 0 "#PWR036" H 2965 9640 50  0001 C CNN
F 1 "GND" H 2970 9717 50  0000 C CNN
F 2 "" H 2965 9890 50  0001 C CNN
F 3 "" H 2965 9890 50  0001 C CNN
	1    2965 9890
	1    0    0    -1  
$EndComp
Wire Wire Line
	2965 9790 2965 9845
$Comp
L power:GND #PWR029
U 1 1 6027B9E2
P 2960 6780
F 0 "#PWR029" H 2960 6530 50  0001 C CNN
F 1 "GND" H 2965 6607 50  0000 C CNN
F 2 "" H 2960 6780 50  0001 C CNN
F 3 "" H 2960 6780 50  0001 C CNN
	1    2960 6780
	1    0    0    -1  
$EndComp
Wire Wire Line
	2960 6680 2960 6720
Wire Wire Line
	2965 3760 2965 3815
$Comp
L power:GND #PWR020
U 1 1 6027CB90
P 2965 3860
F 0 "#PWR020" H 2965 3610 50  0001 C CNN
F 1 "GND" H 2970 3687 50  0000 C CNN
F 2 "" H 2965 3860 50  0001 C CNN
F 3 "" H 2965 3860 50  0001 C CNN
	1    2965 3860
	1    0    0    -1  
$EndComp
$Comp
L power:GND #PWR032
U 1 1 60281CCA
P 3335 7595
F 0 "#PWR032" H 3335 7345 50  0001 C CNN
F 1 "GND" H 3445 7480 50  0000 C CNN
F 2 "" H 3335 7595 50  0001 C CNN
F 3 "" H 3335 7595 50  0001 C CNN
	1    3335 7595
	1    0    0    -1  
$EndComp
$Comp
L Device:C_Small C13
U 1 1 60275496
P 3140 7520
F 0 "C13" V 2985 7530 50  0000 C CNN
F 1 "100nF" V 3080 7705 50  0000 C CNN
F 2 "Capacitor_SMD:C_0805_2012Metric" H 3140 7520 50  0001 C CNN
F 3 "~" H 3140 7520 50  0001 C CNN
	1    3140 7520
	0    1    1    0   
$EndComp
$Comp
L power:+5V #PWR031
U 1 1 6027A91F
P 2965 7455
F 0 "#PWR031" H 2965 7305 50  0001 C CNN
F 1 "+5V" H 2980 7628 50  0000 C CNN
F 2 "" H 2965 7455 50  0001 C CNN
F 3 "" H 2965 7455 50  0001 C CNN
	1    2965 7455
	1    0    0    -1  
$EndComp
Wire Wire Line
	2965 7590 2965 7520
Wire Wire Line
	3040 7520 2965 7520
Connection ~ 2965 7520
Wire Wire Line
	2965 7520 2965 7455
Wire Wire Line
	3240 7520 3335 7520
Wire Wire Line
	3335 7520 3335 7595
$Comp
L Device:C_Small C10
U 1 1 60284044
P 3135 4410
F 0 "C10" V 2980 4420 50  0000 C CNN
F 1 "100nF" V 3075 4595 50  0000 C CNN
F 2 "Capacitor_SMD:C_0805_2012Metric" H 3135 4410 50  0001 C CNN
F 3 "~" H 3135 4410 50  0001 C CNN
	1    3135 4410
	0    1    1    0   
$EndComp
$Comp
L power:+5V #PWR023
U 1 1 602841D6
P 2960 4345
F 0 "#PWR023" H 2960 4195 50  0001 C CNN
F 1 "+5V" H 2975 4518 50  0000 C CNN
F 2 "" H 2960 4345 50  0001 C CNN
F 3 "" H 2960 4345 50  0001 C CNN
	1    2960 4345
	1    0    0    -1  
$EndComp
Wire Wire Line
	2960 4480 2960 4410
Wire Wire Line
	3035 4410 2960 4410
Connection ~ 2960 4410
Wire Wire Line
	2960 4410 2960 4345
Wire Wire Line
	3235 4410 3330 4410
Wire Wire Line
	3330 4410 3330 4485
$Comp
L Device:C_Small C9
U 1 1 60286CAE
P 3140 1490
F 0 "C9" V 2985 1500 50  0000 C CNN
F 1 "100nF" V 3080 1675 50  0000 C CNN
F 2 "Capacitor_SMD:C_0805_2012Metric" H 3140 1490 50  0001 C CNN
F 3 "~" H 3140 1490 50  0001 C CNN
	1    3140 1490
	0    1    1    0   
$EndComp
$Comp
L power:+5V #PWR017
U 1 1 60286E62
P 2965 1425
F 0 "#PWR017" H 2965 1275 50  0001 C CNN
F 1 "+5V" H 2980 1598 50  0000 C CNN
F 2 "" H 2965 1425 50  0001 C CNN
F 3 "" H 2965 1425 50  0001 C CNN
	1    2965 1425
	1    0    0    -1  
$EndComp
Wire Wire Line
	2965 1560 2965 1490
Wire Wire Line
	3040 1490 2965 1490
Connection ~ 2965 1490
Wire Wire Line
	2965 1490 2965 1425
Wire Wire Line
	3240 1490 3335 1490
Wire Wire Line
	3335 1490 3335 1565
$Comp
L power:GND #PWR024
U 1 1 6028A17B
P 3330 4485
F 0 "#PWR024" H 3330 4235 50  0001 C CNN
F 1 "GND" H 3420 4360 50  0000 C CNN
F 2 "" H 3330 4485 50  0001 C CNN
F 3 "" H 3330 4485 50  0001 C CNN
	1    3330 4485
	1    0    0    -1  
$EndComp
$Comp
L power:GND #PWR018
U 1 1 6028A71D
P 3335 1565
F 0 "#PWR018" H 3335 1315 50  0001 C CNN
F 1 "GND" H 3425 1440 50  0000 C CNN
F 2 "" H 3335 1565 50  0001 C CNN
F 3 "" H 3335 1565 50  0001 C CNN
	1    3335 1565
	1    0    0    -1  
$EndComp
Text Notes 2285 9730 0    50   ~ 0
Address: 0x20
Text Notes 2270 6615 0    50   ~ 0
Address: 0x21
Text Notes 2230 3705 0    50   ~ 0
Address: 0x22
Wire Wire Line
	5475 8790 5475 9310
Wire Wire Line
	5325 9210 5325 8890
Wire Wire Line
	3665 8990 3935 8990
Wire Wire Line
	5250 8990 5250 9110
Wire Wire Line
	5525 9010 5525 9090
Wire Wire Line
	5525 9090 4035 9090
Wire Wire Line
	3665 9190 4210 9190
Wire Wire Line
	5015 9190 5015 8910
Wire Wire Line
	5585 8810 5585 9290
Wire Wire Line
	5585 9290 4310 9290
Wire Wire Line
	3665 9390 4410 9390
Wire Wire Line
	5685 9390 5685 8710
Wire Wire Line
	5805 8610 5805 9490
Wire Wire Line
	5805 9490 4510 9490
Wire Wire Line
	5135 7890 5135 8510
Wire Wire Line
	5135 8510 5915 8510
Wire Wire Line
	7130 8410 6015 8410
Wire Wire Line
	5220 8410 5220 7990
Wire Wire Line
	5320 8090 5320 8310
Wire Wire Line
	5320 8310 6115 8310
Wire Wire Line
	5045 8210 5045 8190
Wire Wire Line
	5045 8210 6215 8210
Wire Wire Line
	4880 8290 4880 8110
Wire Wire Line
	4880 8110 6380 8110
Wire Wire Line
	7130 8010 6480 8010
Wire Wire Line
	4810 8010 4810 8390
Wire Wire Line
	4655 8490 4655 7910
Wire Wire Line
	4655 7910 6580 7910
Wire Wire Line
	7130 7810 6680 7810
Wire Wire Line
	4540 7810 4540 8590
$Comp
L Device:R_Small R13
U 1 1 602A03D6
P 8970 8610
F 0 "R13" V 8920 8445 50  0000 C CNN
F 1 "10K" V 8890 8610 50  0000 C CNN
F 2 "Resistor_SMD:R_0603_1608Metric" H 8970 8610 50  0001 C CNN
F 3 "~" H 8970 8610 50  0001 C CNN
	1    8970 8610
	0    1    1    0   
$EndComp
$Comp
L power:GND #PWR037
U 1 1 602A2074
P 8280 6415
F 0 "#PWR037" H 8280 6165 50  0001 C CNN
F 1 "GND" H 8285 6242 50  0000 C CNN
F 2 "" H 8280 6415 50  0001 C CNN
F 3 "" H 8280 6415 50  0001 C CNN
	1    8280 6415
	1    0    0    -1  
$EndComp
Wire Wire Line
	8170 10185 8170 10080
$Comp
L power:+5V #PWR034
U 1 1 602A57E3
P 9170 8560
F 0 "#PWR034" H 9170 8410 50  0001 C CNN
F 1 "+5V" H 9185 8733 50  0000 C CNN
F 2 "" H 9170 8560 50  0001 C CNN
F 3 "" H 9170 8560 50  0001 C CNN
	1    9170 8560
	1    0    0    -1  
$EndComp
Wire Wire Line
	8530 8610 8870 8610
Wire Wire Line
	8530 8710 8865 8710
Wire Wire Line
	9070 8610 9170 8610
Wire Wire Line
	9170 8610 9170 8560
Wire Wire Line
	9065 8710 9170 8710
Wire Wire Line
	9170 8710 9170 8610
Connection ~ 9170 8610
$Comp
L Device:R_Small R12
U 1 1 602B03EB
P 8970 8110
F 0 "R12" V 8920 7950 50  0000 C CNN
F 1 "10K" V 9055 8105 50  0000 C CNN
F 2 "Resistor_SMD:R_0603_1608Metric" H 8970 8110 50  0001 C CNN
F 3 "~" H 8970 8110 50  0001 C CNN
	1    8970 8110
	0    1    1    0   
$EndComp
$Comp
L Device:R_Small R11
U 1 1 602B0647
P 8965 7010
F 0 "R11" V 8925 6870 50  0000 C CNN
F 1 "10K" V 9045 7005 50  0000 C CNN
F 2 "Resistor_SMD:R_0603_1608Metric" H 8965 7010 50  0001 C CNN
F 3 "~" H 8965 7010 50  0001 C CNN
	1    8965 7010
	0    1    1    0   
$EndComp
$Comp
L power:+5V #PWR030
U 1 1 602B0651
P 9170 6860
F 0 "#PWR030" H 9170 6710 50  0001 C CNN
F 1 "+5V" H 9185 7033 50  0000 C CNN
F 2 "" H 9170 6860 50  0001 C CNN
F 3 "" H 9170 6860 50  0001 C CNN
	1    9170 6860
	1    0    0    -1  
$EndComp
Wire Wire Line
	8530 8110 8870 8110
Wire Wire Line
	8530 7010 8865 7010
Wire Wire Line
	9070 8110 9170 8110
Wire Wire Line
	9065 7010 9170 7010
Wire Wire Line
	9170 6860 9170 7010
$Comp
L power:+5V #PWR033
U 1 1 602BA50A
P 9170 8055
F 0 "#PWR033" H 9170 7905 50  0001 C CNN
F 1 "+5V" H 9185 8228 50  0000 C CNN
F 2 "" H 9170 8055 50  0001 C CNN
F 3 "" H 9170 8055 50  0001 C CNN
	1    9170 8055
	1    0    0    -1  
$EndComp
Wire Wire Line
	9170 8110 9170 8055
NoConn ~ 8530 8010
NoConn ~ 8530 7410
NoConn ~ 8530 7310
NoConn ~ 8530 6910
NoConn ~ 8530 8210
NoConn ~ 8530 8310
Wire Wire Line
	3660 5680 4660 5680
Wire Wire Line
	4660 5680 4660 7610
Wire Wire Line
	4660 7610 6835 7610
Wire Wire Line
	7130 7510 6735 7510
Wire Wire Line
	4810 7510 4810 5780
Wire Wire Line
	4810 5780 3660 5780
Wire Wire Line
	3660 5880 4945 5880
Wire Wire Line
	4945 5880 4945 7410
Wire Wire Line
	4945 7410 6635 7410
Wire Wire Line
	7130 7310 6535 7310
Wire Wire Line
	5110 7310 5110 5980
Wire Wire Line
	5110 5980 3660 5980
Wire Wire Line
	3660 6080 5235 6080
Wire Wire Line
	5235 6080 5235 7210
Wire Wire Line
	5235 7210 6390 7210
Wire Wire Line
	7130 7110 6290 7110
Wire Wire Line
	5360 7110 5360 6180
Wire Wire Line
	5360 6180 3660 6180
Wire Wire Line
	3660 6280 5515 6280
Wire Wire Line
	5515 6280 5515 7010
Wire Wire Line
	5515 7010 6190 7010
Wire Wire Line
	7130 6910 6090 6910
Wire Wire Line
	5620 6910 5620 6380
Wire Wire Line
	5620 6380 3660 6380
Connection ~ 2960 6720
Wire Wire Line
	2960 6720 2960 6780
NoConn ~ 2260 5480
NoConn ~ 2260 5380
NoConn ~ 2265 2460
NoConn ~ 2265 2560
NoConn ~ 2265 8590
NoConn ~ 2265 8490
NoConn ~ 3660 4780
NoConn ~ 3660 4880
NoConn ~ 3660 4980
NoConn ~ 3660 5080
NoConn ~ 3660 5180
NoConn ~ 3660 5280
NoConn ~ 3660 5380
NoConn ~ 3660 5480
Wire Wire Line
	3665 2760 5105 2760
Wire Wire Line
	10010 2760 10010 9010
Wire Wire Line
	10010 9010 8530 9010
Wire Wire Line
	3665 2860 5005 2860
Wire Wire Line
	9895 2860 9895 7610
Wire Wire Line
	9895 7610 8530 7610
Wire Wire Line
	8530 7510 9780 7510
Wire Wire Line
	9780 2960 9780 7510
Wire Wire Line
	3665 2960 4905 2960
Wire Wire Line
	3665 3060 4805 3060
Wire Wire Line
	9630 3060 9630 9310
Wire Wire Line
	9630 9310 8530 9310
$Comp
L power:+5V #PWR035
U 1 1 60344F28
P 1930 8690
F 0 "#PWR035" H 1930 8540 50  0001 C CNN
F 1 "+5V" H 1945 8863 50  0000 C CNN
F 2 "" H 1930 8690 50  0001 C CNN
F 3 "" H 1930 8690 50  0001 C CNN
	1    1930 8690
	1    0    0    -1  
$EndComp
$Comp
L Device:R_Small R15
U 1 1 60345D0B
P 2070 8790
F 0 "R15" V 1985 8795 50  0000 C CNN
F 1 "10K" V 2150 8785 50  0000 C CNN
F 2 "Resistor_SMD:R_0603_1608Metric" H 2070 8790 50  0001 C CNN
F 3 "~" H 2070 8790 50  0001 C CNN
	1    2070 8790
	0    1    1    0   
$EndComp
Wire Wire Line
	1970 8790 1930 8790
Wire Wire Line
	1930 8790 1930 8690
$Comp
L power:+5V #PWR025
U 1 1 6035137E
P 1925 5580
F 0 "#PWR025" H 1925 5430 50  0001 C CNN
F 1 "+5V" H 1940 5753 50  0000 C CNN
F 2 "" H 1925 5580 50  0001 C CNN
F 3 "" H 1925 5580 50  0001 C CNN
	1    1925 5580
	1    0    0    -1  
$EndComp
$Comp
L Device:R_Small R10
U 1 1 6035164A
P 2065 5680
F 0 "R10" V 1980 5685 50  0000 C CNN
F 1 "10K" V 2145 5675 50  0000 C CNN
F 2 "Resistor_SMD:R_0603_1608Metric" H 2065 5680 50  0001 C CNN
F 3 "~" H 2065 5680 50  0001 C CNN
	1    2065 5680
	0    1    1    0   
$EndComp
Wire Wire Line
	2260 5680 2165 5680
Wire Wire Line
	1965 5680 1925 5680
Wire Wire Line
	1925 5680 1925 5580
$Comp
L power:+5V #PWR019
U 1 1 60359155
P 1930 2660
F 0 "#PWR019" H 1930 2510 50  0001 C CNN
F 1 "+5V" H 1945 2833 50  0000 C CNN
F 2 "" H 1930 2660 50  0001 C CNN
F 3 "" H 1930 2660 50  0001 C CNN
	1    1930 2660
	1    0    0    -1  
$EndComp
$Comp
L Device:R_Small R9
U 1 1 60359441
P 2070 2760
F 0 "R9" V 1985 2765 50  0000 C CNN
F 1 "10K" V 2150 2755 50  0000 C CNN
F 2 "Resistor_SMD:R_0603_1608Metric" H 2070 2760 50  0001 C CNN
F 3 "~" H 2070 2760 50  0001 C CNN
	1    2070 2760
	0    1    1    0   
$EndComp
Wire Wire Line
	2265 2760 2170 2760
Wire Wire Line
	1970 2760 1930 2760
Wire Wire Line
	1930 2760 1930 2660
Connection ~ 2965 3815
Wire Wire Line
	2965 3815 2965 3860
Wire Wire Line
	1930 3360 1930 2760
Wire Wire Line
	1930 3360 2265 3360
Connection ~ 1930 2760
Wire Wire Line
	2265 3460 2125 3460
Wire Wire Line
	2125 3460 2125 3815
Wire Wire Line
	2125 3815 2965 3815
Wire Wire Line
	2265 3260 2125 3260
Wire Wire Line
	2125 3260 2125 3460
Connection ~ 2125 3460
$Comp
L Interface_Expansion:MCP23017_SS U?
U 1 1 60244D4F
P 2960 5580
AR Path="/60244D4F" Ref="U?"  Part="1" 
AR Path="/6024091D/60244D4F" Ref="U2"  Part="1" 
F 0 "U2" H 3075 6550 50  0000 C CNN
F 1 "MCP23017_SS" H 2595 6565 50  0000 C CNN
F 2 "Package_SO:SSOP-28_5.3x10.2mm_P0.65mm" H 3160 4580 50  0001 L CNN
F 3 "http://ww1.microchip.com/downloads/en/DeviceDoc/20001952C.pdf" H 3160 4480 50  0001 L CNN
F 4 "https://www.x-on.com.au/mpn/microchip/mcp23017ess" H 2960 5580 50  0001 C CNN "Suppler1_PN"
	1    2960 5580
	1    0    0    -1  
$EndComp
Wire Wire Line
	2260 6280 2165 6280
Wire Wire Line
	2165 6280 2165 6720
Wire Wire Line
	2165 6720 2960 6720
Wire Wire Line
	2260 6180 2165 6180
Wire Wire Line
	2165 6180 2165 6280
Connection ~ 2165 6280
Wire Wire Line
	2260 6380 1925 6380
Wire Wire Line
	1925 6380 1925 5680
Connection ~ 1925 5680
Wire Wire Line
	2150 9490 2150 9845
Wire Wire Line
	2150 9845 2965 9845
Connection ~ 2965 9845
Wire Wire Line
	2965 9845 2965 9890
Wire Wire Line
	2150 9390 2150 9490
Connection ~ 2150 9490
Wire Wire Line
	2150 9290 2150 9390
Connection ~ 2150 9390
NoConn ~ 3665 2460
NoConn ~ 3665 2360
NoConn ~ 3665 2260
NoConn ~ 3665 2160
NoConn ~ 3665 2060
NoConn ~ 3665 1960
NoConn ~ 3665 1860
$Comp
L Device:C_Small C12
U 1 1 6041A973
P 8335 10080
F 0 "C12" V 8275 9990 50  0000 C CNN
F 1 "100nF" V 8435 10145 50  0000 C CNN
F 2 "Capacitor_SMD:C_0805_2012Metric" H 8335 10080 50  0001 C CNN
F 3 "~" H 8335 10080 50  0001 C CNN
	1    8335 10080
	0    1    1    0   
$EndComp
$Comp
L power:GND #PWR028
U 1 1 6041B6C5
P 8570 10110
F 0 "#PWR028" H 8570 9860 50  0001 C CNN
F 1 "GND" H 8710 9995 50  0000 C CNN
F 2 "" H 8570 10110 50  0001 C CNN
F 3 "" H 8570 10110 50  0001 C CNN
	1    8570 10110
	1    0    0    -1  
$EndComp
Wire Wire Line
	8435 10080 8570 10080
Wire Wire Line
	8570 10080 8570 10110
Wire Wire Line
	8235 10080 8170 10080
Connection ~ 8170 10080
Wire Wire Line
	8280 6320 8280 6415
Connection ~ 8280 6320
Wire Wire Line
	8655 6320 8280 6320
Wire Wire Line
	8655 6270 8655 6320
Wire Wire Line
	8280 6215 8280 6320
Wire Wire Line
	8655 6015 8725 6015
Connection ~ 8655 6015
Wire Wire Line
	8655 6070 8655 6015
Wire Wire Line
	8580 6015 8655 6015
$Comp
L Device:R_Small R16
U 1 1 6042E0C6
P 8825 6015
F 0 "R16" V 8740 6020 50  0000 C CNN
F 1 "150" V 8905 6010 50  0000 C CNN
F 2 "Resistor_SMD:R_0603_1608Metric" H 8825 6015 50  0001 C CNN
F 3 "~" H 8825 6015 50  0001 C CNN
	1    8825 6015
	0    1    -1   0   
$EndComp
$Comp
L Device:R_Small R17
U 1 1 6042CCC8
P 8655 6170
F 0 "R17" V 8570 6175 50  0000 C CNN
F 1 "10K" V 8735 6165 50  0000 C CNN
F 2 "Resistor_SMD:R_0603_1608Metric" H 8655 6170 50  0001 C CNN
F 3 "~" H 8655 6170 50  0001 C CNN
	1    8655 6170
	1    0    0    1   
$EndComp
$Comp
L power:+5V #PWR027
U 1 1 602A2AD1
P 8170 9735
F 0 "#PWR027" H 8170 9585 50  0001 C CNN
F 1 "+5V" H 8185 9908 50  0000 C CNN
F 2 "" H 8170 9735 50  0001 C CNN
F 3 "" H 8170 9735 50  0001 C CNN
	1    8170 9735
	-1   0    0    -1  
$EndComp
Connection ~ 8280 6415
Wire Wire Line
	8280 6415 8280 6420
Wire Wire Line
	10160 2560 10160 6015
Wire Wire Line
	3665 2560 5425 2560
$Comp
L Device:C_Small C11
U 1 1 60494D8B
P 8335 9850
F 0 "C11" V 8440 9920 50  0000 C CNN
F 1 "4.7uF" V 8400 9670 50  0000 C CNN
F 2 "Capacitor_SMD:C_0805_2012Metric" H 8335 9850 50  0001 C CNN
F 3 "~" H 8335 9850 50  0001 C CNN
	1    8335 9850
	0    -1   -1   0   
$EndComp
Wire Wire Line
	8435 9850 8570 9850
Wire Wire Line
	8570 9850 8570 10080
Connection ~ 8570 10080
Wire Wire Line
	8170 9735 8170 9850
Wire Wire Line
	8235 9850 8170 9850
Connection ~ 8170 9850
Wire Wire Line
	8170 9850 8170 10080
$Comp
L Device:R_Pack04 RN3
U 1 1 604C826B
P 6290 6560
F 0 "RN3" H 5835 6670 50  0000 L CNN
F 1 "2K" H 5870 6520 50  0000 L CNN
F 2 "Resistor_SMD:R_Array_Concave_4x0603" V 6565 6560 50  0001 C CNN
F 3 "~" H 6290 6560 50  0001 C CNN
	1    6290 6560
	1    0    0    -1  
$EndComp
$Comp
L Device:R_Pack04 RN4
U 1 1 604C8C8A
P 6735 6560
F 0 "RN4" H 6923 6606 50  0000 L CNN
F 1 "2K" H 6940 6500 50  0000 L CNN
F 2 "Resistor_SMD:R_Array_Concave_4x0603" V 7010 6560 50  0001 C CNN
F 3 "~" H 6735 6560 50  0001 C CNN
	1    6735 6560
	1    0    0    -1  
$EndComp
Wire Wire Line
	5325 8890 3835 8890
Wire Wire Line
	3665 8790 3735 8790
Wire Wire Line
	6090 6760 6090 6910
Connection ~ 6090 6910
Wire Wire Line
	6090 6910 5620 6910
Wire Wire Line
	6190 6760 6190 7010
Connection ~ 6190 7010
Wire Wire Line
	6190 7010 7130 7010
Wire Wire Line
	6290 6760 6290 7110
Connection ~ 6290 7110
Wire Wire Line
	6290 7110 5360 7110
Wire Wire Line
	6390 6760 6390 7210
Connection ~ 6390 7210
Wire Wire Line
	6390 7210 7130 7210
Wire Wire Line
	6535 6760 6535 7310
Connection ~ 6535 7310
Wire Wire Line
	6535 7310 5110 7310
Wire Wire Line
	6635 6760 6635 7410
Connection ~ 6635 7410
Wire Wire Line
	6635 7410 7130 7410
Wire Wire Line
	6735 6760 6735 7510
Connection ~ 6735 7510
Wire Wire Line
	6735 7510 4810 7510
Wire Wire Line
	6835 6760 6835 7610
Connection ~ 6835 7610
Wire Wire Line
	6835 7610 7130 7610
$Comp
L Device:LED_Small D9
U 1 1 605ECC2B
P 6090 6160
F 0 "D9" V 6010 6085 50  0000 L CNN
F 1 "Red" V 6155 6085 50  0000 L CNN
F 2 "LED_SMD:LED_0603_1608Metric" V 6090 6160 50  0001 C CNN
F 3 "~" V 6090 6160 50  0001 C CNN
	1    6090 6160
	0    1    1    0   
$EndComp
Wire Wire Line
	6090 6360 6090 6260
Wire Wire Line
	6835 6260 6835 6360
$Comp
L Device:LED_Small D10
U 1 1 60609990
P 6190 6160
F 0 "D10" V 6025 6090 50  0000 L CNN
F 1 "Red" V 6320 6100 50  0000 L CNN
F 2 "LED_SMD:LED_0603_1608Metric" V 6190 6160 50  0001 C CNN
F 3 "~" V 6190 6160 50  0001 C CNN
	1    6190 6160
	0    1    1    0   
$EndComp
$Comp
L Device:LED_Small D11
U 1 1 6060A257
P 6290 6160
F 0 "D11" V 6210 6090 50  0000 L CNN
F 1 "Red" V 6360 6100 50  0000 L CNN
F 2 "LED_SMD:LED_0603_1608Metric" V 6290 6160 50  0001 C CNN
F 3 "~" V 6290 6160 50  0001 C CNN
	1    6290 6160
	0    1    1    0   
$EndComp
$Comp
L Device:LED_Small D12
U 1 1 6060A9A1
P 6390 6160
F 0 "D12" V 6230 6090 50  0000 L CNN
F 1 "Red" V 6520 6095 50  0000 L CNN
F 2 "LED_SMD:LED_0603_1608Metric" V 6390 6160 50  0001 C CNN
F 3 "~" V 6390 6160 50  0001 C CNN
	1    6390 6160
	0    1    1    0   
$EndComp
$Comp
L Device:LED_Small D13
U 1 1 6060AE8D
P 6535 6160
F 0 "D13" V 6455 6090 50  0000 L CNN
F 1 "Red" V 6595 6110 50  0000 L CNN
F 2 "LED_SMD:LED_0603_1608Metric" V 6535 6160 50  0001 C CNN
F 3 "~" V 6535 6160 50  0001 C CNN
	1    6535 6160
	0    1    1    0   
$EndComp
$Comp
L Device:LED_Small D14
U 1 1 6060B75B
P 6635 6160
F 0 "D14" V 6480 6095 50  0000 L CNN
F 1 "Red" V 6760 6115 50  0000 L CNN
F 2 "LED_SMD:LED_0603_1608Metric" V 6635 6160 50  0001 C CNN
F 3 "~" V 6635 6160 50  0001 C CNN
	1    6635 6160
	0    1    1    0   
$EndComp
$Comp
L Device:LED_Small D15
U 1 1 6060BC39
P 6735 6160
F 0 "D15" V 6655 6085 50  0000 L CNN
F 1 "Red" V 6800 6105 50  0000 L CNN
F 2 "LED_SMD:LED_0603_1608Metric" V 6735 6160 50  0001 C CNN
F 3 "~" V 6735 6160 50  0001 C CNN
	1    6735 6160
	0    1    1    0   
$EndComp
$Comp
L Device:LED_Small D16
U 1 1 6060C190
P 6835 6160
F 0 "D16" V 6685 6100 50  0000 L CNN
F 1 "Red" V 6965 6105 50  0000 L CNN
F 2 "LED_SMD:LED_0603_1608Metric" V 6835 6160 50  0001 C CNN
F 3 "~" V 6835 6160 50  0001 C CNN
	1    6835 6160
	0    1    1    0   
$EndComp
Wire Wire Line
	6735 6360 6735 6260
Wire Wire Line
	6635 6260 6635 6360
Wire Wire Line
	6535 6260 6535 6360
Wire Wire Line
	6390 6260 6390 6360
Wire Wire Line
	6290 6260 6290 6360
Wire Wire Line
	6190 6260 6190 6360
$Comp
L power:GND #PWR026
U 1 1 606614D3
P 7070 5905
F 0 "#PWR026" H 7070 5655 50  0001 C CNN
F 1 "GND" H 7210 5790 50  0000 C CNN
F 2 "" H 7070 5905 50  0001 C CNN
F 3 "" H 7070 5905 50  0001 C CNN
	1    7070 5905
	1    0    0    -1  
$EndComp
Wire Wire Line
	7070 5905 7070 5875
Wire Wire Line
	7070 5875 6835 5875
Wire Wire Line
	6090 5875 6090 6060
Wire Wire Line
	6190 6060 6190 5875
Connection ~ 6190 5875
Wire Wire Line
	6190 5875 6090 5875
Wire Wire Line
	6290 6060 6290 5875
Connection ~ 6290 5875
Wire Wire Line
	6290 5875 6190 5875
Wire Wire Line
	6390 6060 6390 5875
Connection ~ 6390 5875
Wire Wire Line
	6390 5875 6290 5875
Wire Wire Line
	6535 6060 6535 5875
Connection ~ 6535 5875
Wire Wire Line
	6535 5875 6390 5875
Wire Wire Line
	6635 6060 6635 5875
Connection ~ 6635 5875
Wire Wire Line
	6635 5875 6535 5875
Wire Wire Line
	6735 6060 6735 5875
Connection ~ 6735 5875
Wire Wire Line
	6735 5875 6635 5875
Wire Wire Line
	6835 6060 6835 5875
Connection ~ 6835 5875
Wire Wire Line
	6835 5875 6735 5875
$Comp
L Device:R_Pack04 RN6
U 1 1 606DE095
P 6480 9830
F 0 "RN6" H 6025 9940 50  0000 L CNN
F 1 "2K" H 6060 9790 50  0000 L CNN
F 2 "Resistor_SMD:R_Array_Concave_4x0603" V 6755 9830 50  0001 C CNN
F 3 "~" H 6480 9830 50  0001 C CNN
	1    6480 9830
	-1   0    0    1   
$EndComp
$Comp
L Device:R_Pack04 RN5
U 1 1 606DE66D
P 6015 9830
F 0 "RN5" H 6203 9876 50  0000 L CNN
F 1 "2K" H 6220 9770 50  0000 L CNN
F 2 "Resistor_SMD:R_Array_Concave_4x0603" V 6290 9830 50  0001 C CNN
F 3 "~" H 6015 9830 50  0001 C CNN
	1    6015 9830
	-1   0    0    1   
$EndComp
$Comp
L Device:LED_Small D24
U 1 1 606DE677
P 6680 10230
F 0 "D24" V 6595 10130 50  0000 L CNN
F 1 "Green" V 6750 10085 50  0000 L CNN
F 2 "LED_SMD:LED_0603_1608Metric" V 6680 10230 50  0001 C CNN
F 3 "~" V 6680 10230 50  0001 C CNN
	1    6680 10230
	0    -1   -1   0   
$EndComp
Wire Wire Line
	6680 10030 6680 10130
Wire Wire Line
	5915 10130 5915 10030
$Comp
L Device:LED_Small D23
U 1 1 606DE683
P 6580 10230
F 0 "D23" V 6410 10165 50  0000 L CNN
F 1 "Green" V 6730 10125 50  0000 L CNN
F 2 "LED_SMD:LED_0603_1608Metric" V 6580 10230 50  0001 C CNN
F 3 "~" V 6580 10230 50  0001 C CNN
	1    6580 10230
	0    -1   -1   0   
$EndComp
$Comp
L Device:LED_Small D22
U 1 1 606DE68D
P 6480 10230
F 0 "D22" V 6395 10170 50  0000 L CNN
F 1 "Green" V 6555 10125 50  0000 L CNN
F 2 "LED_SMD:LED_0603_1608Metric" V 6480 10230 50  0001 C CNN
F 3 "~" V 6480 10230 50  0001 C CNN
	1    6480 10230
	0    -1   -1   0   
$EndComp
$Comp
L Device:LED_Small D21
U 1 1 606DE697
P 6380 10230
F 0 "D21" V 6215 10175 50  0000 L CNN
F 1 "Green" V 6540 10150 50  0000 L CNN
F 2 "LED_SMD:LED_0603_1608Metric" V 6380 10230 50  0001 C CNN
F 3 "~" V 6380 10230 50  0001 C CNN
	1    6380 10230
	0    -1   -1   0   
$EndComp
$Comp
L Device:LED_Small D20
U 1 1 606DE6A1
P 6215 10230
F 0 "D20" V 6140 10170 50  0000 L CNN
F 1 "Green" V 6280 10105 50  0000 L CNN
F 2 "LED_SMD:LED_0603_1608Metric" V 6215 10230 50  0001 C CNN
F 3 "~" V 6215 10230 50  0001 C CNN
	1    6215 10230
	0    -1   -1   0   
$EndComp
$Comp
L Device:LED_Small D19
U 1 1 606DE6AB
P 6115 10230
F 0 "D19" V 5945 10170 50  0000 L CNN
F 1 "Green" V 6285 10120 50  0000 L CNN
F 2 "LED_SMD:LED_0603_1608Metric" V 6115 10230 50  0001 C CNN
F 3 "~" V 6115 10230 50  0001 C CNN
	1    6115 10230
	0    -1   -1   0   
$EndComp
$Comp
L Device:LED_Small D18
U 1 1 606DE6B5
P 6015 10230
F 0 "D18" V 5935 10165 50  0000 L CNN
F 1 "Green" V 6090 10125 50  0000 L CNN
F 2 "LED_SMD:LED_0603_1608Metric" V 6015 10230 50  0001 C CNN
F 3 "~" V 6015 10230 50  0001 C CNN
	1    6015 10230
	0    -1   -1   0   
$EndComp
$Comp
L Device:LED_Small D17
U 1 1 606DE6BF
P 5915 10230
F 0 "D17" V 5745 10170 50  0000 L CNN
F 1 "Green" V 6090 10160 50  0000 L CNN
F 2 "LED_SMD:LED_0603_1608Metric" V 5915 10230 50  0001 C CNN
F 3 "~" V 5915 10230 50  0001 C CNN
	1    5915 10230
	0    -1   -1   0   
$EndComp
Wire Wire Line
	6015 10030 6015 10130
Wire Wire Line
	6115 10130 6115 10030
Wire Wire Line
	6215 10130 6215 10030
Wire Wire Line
	6380 10130 6380 10030
Wire Wire Line
	6480 10130 6480 10030
Wire Wire Line
	6580 10130 6580 10030
$Comp
L power:GND #PWR038
U 1 1 606DE6CF
P 5915 10565
F 0 "#PWR038" H 5915 10315 50  0001 C CNN
F 1 "GND" H 6055 10450 50  0000 C CNN
F 2 "" H 5915 10565 50  0001 C CNN
F 3 "" H 5915 10565 50  0001 C CNN
	1    5915 10565
	1    0    0    -1  
$EndComp
Wire Wire Line
	6680 10515 6680 10330
Wire Wire Line
	6580 10330 6580 10515
Connection ~ 6580 10515
Wire Wire Line
	6580 10515 6680 10515
Wire Wire Line
	6480 10330 6480 10515
Connection ~ 6480 10515
Wire Wire Line
	6480 10515 6580 10515
Wire Wire Line
	6380 10330 6380 10515
Wire Wire Line
	6380 10515 6480 10515
Wire Wire Line
	6215 10330 6215 10515
Connection ~ 6215 10515
Wire Wire Line
	6115 10330 6115 10515
Connection ~ 6115 10515
Wire Wire Line
	6115 10515 6215 10515
Wire Wire Line
	6015 10330 6015 10515
Connection ~ 6015 10515
Wire Wire Line
	6015 10515 6115 10515
Wire Wire Line
	5915 10330 5915 10515
Wire Wire Line
	5915 10515 6015 10515
Wire Wire Line
	5915 10515 5915 10565
Connection ~ 5915 10515
Wire Wire Line
	6215 10515 6380 10515
Connection ~ 6380 10515
$Comp
L Device:R_Pack04 RN8
U 1 1 607B2676
P 4310 9865
F 0 "RN8" H 3855 9975 50  0000 L CNN
F 1 "2K" H 3890 9825 50  0000 L CNN
F 2 "Resistor_SMD:R_Array_Concave_4x0603" V 4585 9865 50  0001 C CNN
F 3 "~" H 4310 9865 50  0001 C CNN
	1    4310 9865
	-1   0    0    1   
$EndComp
$Comp
L Device:R_Pack04 RN7
U 1 1 607B2D82
P 3835 9865
F 0 "RN7" H 4023 9911 50  0000 L CNN
F 1 "2K" H 4040 9805 50  0000 L CNN
F 2 "Resistor_SMD:R_Array_Concave_4x0603" V 4110 9865 50  0001 C CNN
F 3 "~" H 3835 9865 50  0001 C CNN
	1    3835 9865
	-1   0    0    1   
$EndComp
$Comp
L Device:LED_Small D32
U 1 1 607B2D8C
P 4510 10265
F 0 "D32" V 4425 10210 50  0000 L CNN
F 1 "Green" V 4575 10035 50  0000 L CNN
F 2 "LED_SMD:LED_0603_1608Metric" V 4510 10265 50  0001 C CNN
F 3 "~" V 4510 10265 50  0001 C CNN
	1    4510 10265
	0    -1   -1   0   
$EndComp
Wire Wire Line
	4510 10065 4510 10165
Wire Wire Line
	3735 10165 3735 10065
$Comp
L Device:LED_Small D31
U 1 1 607B2D98
P 4410 10265
F 0 "D31" V 4260 10215 50  0000 L CNN
F 1 "Green" V 4545 10155 50  0000 L CNN
F 2 "LED_SMD:LED_0603_1608Metric" V 4410 10265 50  0001 C CNN
F 3 "~" V 4410 10265 50  0001 C CNN
	1    4410 10265
	0    -1   -1   0   
$EndComp
$Comp
L Device:LED_Small D30
U 1 1 607B2DA2
P 4310 10265
F 0 "D30" V 4225 10220 50  0000 L CNN
F 1 "Green" V 4385 10180 50  0000 L CNN
F 2 "LED_SMD:LED_0603_1608Metric" V 4310 10265 50  0001 C CNN
F 3 "~" V 4310 10265 50  0001 C CNN
	1    4310 10265
	0    -1   -1   0   
$EndComp
$Comp
L Device:LED_Small D29
U 1 1 607B2DAC
P 4210 10265
F 0 "D29" V 4070 10220 50  0000 L CNN
F 1 "Green" V 4355 10205 50  0000 L CNN
F 2 "LED_SMD:LED_0603_1608Metric" V 4210 10265 50  0001 C CNN
F 3 "~" V 4210 10265 50  0001 C CNN
	1    4210 10265
	0    -1   -1   0   
$EndComp
$Comp
L Device:LED_Small D28
U 1 1 607B2DB6
P 4035 10265
F 0 "D28" V 3950 10210 50  0000 L CNN
F 1 "Green" V 4105 10140 50  0000 L CNN
F 2 "LED_SMD:LED_0603_1608Metric" V 4035 10265 50  0001 C CNN
F 3 "~" V 4035 10265 50  0001 C CNN
	1    4035 10265
	0    -1   -1   0   
$EndComp
$Comp
L Device:LED_Small D27
U 1 1 607B2DC0
P 3935 10265
F 0 "D27" V 3785 10215 50  0000 L CNN
F 1 "Green" V 4085 10180 50  0000 L CNN
F 2 "LED_SMD:LED_0603_1608Metric" V 3935 10265 50  0001 C CNN
F 3 "~" V 3935 10265 50  0001 C CNN
	1    3935 10265
	0    -1   -1   0   
$EndComp
$Comp
L Device:LED_Small D26
U 1 1 607B2DCA
P 3835 10265
F 0 "D26" V 3750 10215 50  0000 L CNN
F 1 "Green" V 3905 10155 50  0000 L CNN
F 2 "LED_SMD:LED_0603_1608Metric" V 3835 10265 50  0001 C CNN
F 3 "~" V 3835 10265 50  0001 C CNN
	1    3835 10265
	0    -1   -1   0   
$EndComp
$Comp
L Device:LED_Small D25
U 1 1 607B2DD4
P 3735 10265
F 0 "D25" V 3580 10220 50  0000 L CNN
F 1 "Green" V 3885 10210 50  0000 L CNN
F 2 "LED_SMD:LED_0603_1608Metric" V 3735 10265 50  0001 C CNN
F 3 "~" V 3735 10265 50  0001 C CNN
	1    3735 10265
	0    -1   -1   0   
$EndComp
Wire Wire Line
	3835 10065 3835 10165
Wire Wire Line
	3935 10165 3935 10065
Wire Wire Line
	4035 10165 4035 10065
Wire Wire Line
	4210 10165 4210 10065
Wire Wire Line
	4310 10165 4310 10065
Wire Wire Line
	4410 10165 4410 10065
$Comp
L power:GND #PWR039
U 1 1 607B2DE4
P 3735 10600
F 0 "#PWR039" H 3735 10350 50  0001 C CNN
F 1 "GND" H 3875 10485 50  0000 C CNN
F 2 "" H 3735 10600 50  0001 C CNN
F 3 "" H 3735 10600 50  0001 C CNN
	1    3735 10600
	1    0    0    -1  
$EndComp
Wire Wire Line
	4510 10550 4510 10365
Wire Wire Line
	4410 10365 4410 10550
Connection ~ 4410 10550
Wire Wire Line
	4410 10550 4510 10550
Wire Wire Line
	4310 10365 4310 10550
Connection ~ 4310 10550
Wire Wire Line
	4310 10550 4410 10550
Wire Wire Line
	4210 10365 4210 10550
Wire Wire Line
	4210 10550 4310 10550
Wire Wire Line
	4035 10365 4035 10550
Connection ~ 4035 10550
Wire Wire Line
	3935 10365 3935 10550
Connection ~ 3935 10550
Wire Wire Line
	3935 10550 4035 10550
Wire Wire Line
	3835 10365 3835 10550
Connection ~ 3835 10550
Wire Wire Line
	3835 10550 3935 10550
Wire Wire Line
	3735 10365 3735 10550
Wire Wire Line
	3735 10550 3835 10550
Wire Wire Line
	3735 10550 3735 10600
Connection ~ 3735 10550
Wire Wire Line
	4035 10550 4210 10550
Connection ~ 4210 10550
$Comp
L Device:R_Pack04 RN1
U 1 1 6084031D
P 4905 3395
F 0 "RN1" H 4450 3505 50  0000 L CNN
F 1 "2K" H 4485 3355 50  0000 L CNN
F 2 "Resistor_SMD:R_Array_Concave_4x0603" V 5180 3395 50  0001 C CNN
F 3 "~" H 4905 3395 50  0001 C CNN
	1    4905 3395
	-1   0    0    1   
$EndComp
$Comp
L Device:LED_Small D4
U 1 1 60840A8D
P 5105 3795
F 0 "D4" V 5025 3730 50  0000 L CNN
F 1 "Blue" V 5180 3705 50  0000 L CNN
F 2 "LED_SMD:LED_0603_1608Metric" V 5105 3795 50  0001 C CNN
F 3 "~" V 5105 3795 50  0001 C CNN
	1    5105 3795
	0    -1   -1   0   
$EndComp
Wire Wire Line
	5105 3595 5105 3695
$Comp
L Device:LED_Small D3
U 1 1 60840A98
P 5005 3795
F 0 "D3" V 4825 3730 50  0000 L CNN
F 1 "Red" V 5170 3725 50  0000 L CNN
F 2 "LED_SMD:LED_0603_1608Metric" V 5005 3795 50  0001 C CNN
F 3 "~" V 5005 3795 50  0001 C CNN
	1    5005 3795
	0    -1   -1   0   
$EndComp
$Comp
L Device:LED_Small D2
U 1 1 60840AA2
P 4905 3795
F 0 "D2" V 4820 3730 50  0000 L CNN
F 1 "Green" V 4980 3685 50  0000 L CNN
F 2 "LED_SMD:LED_0603_1608Metric" V 4905 3795 50  0001 C CNN
F 3 "~" V 4905 3795 50  0001 C CNN
	1    4905 3795
	0    -1   -1   0   
$EndComp
$Comp
L Device:LED_Small D1
U 1 1 60840AAC
P 4805 3795
F 0 "D1" V 4620 3745 50  0000 L CNN
F 1 "Red" V 4975 3730 50  0000 L CNN
F 2 "LED_SMD:LED_0603_1608Metric" V 4805 3795 50  0001 C CNN
F 3 "~" V 4805 3795 50  0001 C CNN
	1    4805 3795
	0    -1   -1   0   
$EndComp
Wire Wire Line
	4805 3695 4805 3595
Wire Wire Line
	4905 3695 4905 3595
Wire Wire Line
	5005 3695 5005 3595
Wire Wire Line
	5105 4080 5105 3895
Wire Wire Line
	5005 3895 5005 4080
Connection ~ 5005 4080
Wire Wire Line
	5005 4080 5105 4080
Wire Wire Line
	4905 3895 4905 4080
Connection ~ 4905 4080
Wire Wire Line
	4905 4080 5005 4080
Wire Wire Line
	4805 3895 4805 4080
Wire Wire Line
	4805 4080 4905 4080
$Comp
L power:GND #PWR021
U 1 1 60864B8D
P 4905 4135
F 0 "#PWR021" H 4905 3885 50  0001 C CNN
F 1 "GND" H 4995 4015 50  0000 C CNN
F 2 "" H 4905 4135 50  0001 C CNN
F 3 "" H 4905 4135 50  0001 C CNN
	1    4905 4135
	1    0    0    -1  
$EndComp
Wire Wire Line
	4905 4135 4905 4080
Wire Wire Line
	4805 3195 4805 3060
Connection ~ 4805 3060
Wire Wire Line
	4805 3060 9630 3060
Wire Wire Line
	4905 3195 4905 2960
Connection ~ 4905 2960
Wire Wire Line
	4905 2960 9780 2960
Wire Wire Line
	5005 3195 5005 2860
Connection ~ 5005 2860
Wire Wire Line
	5005 2860 9895 2860
Wire Wire Line
	5105 3195 5105 2760
Connection ~ 5105 2760
Wire Wire Line
	5105 2760 10010 2760
Text GLabel 5470 2410 0    50   Input ~ 0
LED_GPIO16
$Comp
L Device:R_Pack04 RN2
U 1 1 60985A41
P 5525 3395
F 0 "RN2" H 5070 3505 50  0000 L CNN
F 1 "2K" H 5105 3355 50  0000 L CNN
F 2 "Resistor_SMD:R_Array_Concave_4x0603" V 5800 3395 50  0001 C CNN
F 3 "~" H 5525 3395 50  0001 C CNN
	1    5525 3395
	-1   0    0    1   
$EndComp
$Comp
L Device:LED_Small D7
U 1 1 60986228
P 5625 3795
F 0 "D7" V 5540 3730 50  0000 L CNN
F 1 "Orange" V 5795 3665 50  0000 L CNN
F 2 "LED_SMD:LED_0603_1608Metric" V 5625 3795 50  0001 C CNN
F 3 "~" V 5625 3795 50  0001 C CNN
	1    5625 3795
	0    -1   -1   0   
$EndComp
$Comp
L Device:LED_Small D6
U 1 1 60986232
P 5525 3795
F 0 "D6" V 5345 3730 50  0000 L CNN
F 1 "Yellow" V 5595 3690 50  0000 L CNN
F 2 "LED_SMD:LED_0603_1608Metric" V 5525 3795 50  0001 C CNN
F 3 "~" V 5525 3795 50  0001 C CNN
	1    5525 3795
	0    -1   -1   0   
$EndComp
$Comp
L Device:LED_Small D5
U 1 1 6098623C
P 5425 3795
F 0 "D5" V 5335 3730 50  0000 L CNN
F 1 "Green" V 5585 3735 50  0000 L CNN
F 2 "LED_SMD:LED_0603_1608Metric" V 5425 3795 50  0001 C CNN
F 3 "~" V 5425 3795 50  0001 C CNN
	1    5425 3795
	0    -1   -1   0   
$EndComp
Wire Wire Line
	5425 3695 5425 3595
Wire Wire Line
	5525 3695 5525 3595
Wire Wire Line
	5625 3695 5625 3595
Wire Wire Line
	5625 3895 5625 4080
Wire Wire Line
	5525 3895 5525 4080
Connection ~ 5525 4080
Wire Wire Line
	5525 4080 5625 4080
Wire Wire Line
	5425 3895 5425 4080
Wire Wire Line
	5425 4080 5525 4080
$Comp
L power:GND #PWR022
U 1 1 60986252
P 5525 4135
F 0 "#PWR022" H 5525 3885 50  0001 C CNN
F 1 "GND" H 5615 4015 50  0000 C CNN
F 2 "" H 5525 4135 50  0001 C CNN
F 3 "" H 5525 4135 50  0001 C CNN
	1    5525 4135
	1    0    0    -1  
$EndComp
Wire Wire Line
	5525 4135 5525 4080
Wire Wire Line
	5425 3195 5425 2560
Connection ~ 5425 2560
Wire Wire Line
	5425 2560 10160 2560
Wire Wire Line
	5525 3195 5525 2410
Wire Wire Line
	5525 2410 5470 2410
Text GLabel 5470 2285 0    50   Input ~ 0
LED_GPIO17
Wire Wire Line
	5470 2285 5625 2285
Wire Wire Line
	5625 2285 5625 3195
$Comp
L Device:R_Small R14
U 1 1 602A1DBB
P 8965 8710
F 0 "R14" V 9010 8545 50  0000 C CNN
F 1 "10K" V 9045 8705 50  0000 C CNN
F 2 "Resistor_SMD:R_0603_1608Metric" H 8965 8710 50  0001 C CNN
F 3 "~" H 8965 8710 50  0001 C CNN
	1    8965 8710
	0    1    1    0   
$EndComp
Wire Wire Line
	2175 7990 2265 7990
Wire Wire Line
	2175 7890 2265 7890
Wire Wire Line
	2170 8790 2265 8790
Wire Wire Line
	2150 9290 2265 9290
Wire Wire Line
	2150 9390 2265 9390
Wire Wire Line
	2150 9490 2265 9490
Text Notes 1125 2670 0    50   ~ 0
Control
Text Notes 1240 5615 0    50   ~ 0
Data Bus
Text Notes 1280 8725 0    50   ~ 0
Address Bus
Text Notes 6715 9605 0    50   ~ 0
A15
Text Notes 5795 9640 0    50   ~ 0
A8
Text Notes 4540 9650 0    50   ~ 0
A7\n
Text Notes 3620 9665 0    50   ~ 0
A0
Text Notes 5955 6800 0    50   ~ 0
D7
Text Notes 6870 6820 0    50   ~ 0
D0
Wire Wire Line
	3665 7890 5135 7890
Wire Wire Line
	3665 8590 4540 8590
Wire Wire Line
	3735 9665 3735 8790
Connection ~ 3735 8790
Wire Wire Line
	3735 8790 5475 8790
Wire Wire Line
	4510 9665 4510 9490
Connection ~ 4510 9490
Wire Wire Line
	4510 9490 3665 9490
Wire Wire Line
	3665 7990 5220 7990
Wire Wire Line
	3665 8090 5320 8090
Wire Wire Line
	3665 8190 5045 8190
Wire Wire Line
	3665 8290 4880 8290
Wire Wire Line
	3665 8390 4810 8390
Wire Wire Line
	3665 8490 4655 8490
Wire Wire Line
	5805 8610 7130 8610
Wire Wire Line
	5685 8710 7130 8710
Wire Wire Line
	5585 8810 7130 8810
Wire Wire Line
	5015 8910 7130 8910
Wire Wire Line
	5525 9010 7130 9010
Wire Wire Line
	5250 9110 7130 9110
Wire Wire Line
	5325 9210 7130 9210
Wire Wire Line
	5475 9310 7130 9310
Wire Wire Line
	3835 9665 3835 8890
Connection ~ 3835 8890
Wire Wire Line
	3835 8890 3665 8890
Wire Wire Line
	3935 9665 3935 8990
Connection ~ 3935 8990
Wire Wire Line
	3935 8990 5250 8990
Wire Wire Line
	4035 9665 4035 9090
Connection ~ 4035 9090
Wire Wire Line
	4035 9090 3665 9090
Wire Wire Line
	4210 9665 4210 9190
Connection ~ 4210 9190
Wire Wire Line
	4210 9190 5015 9190
Wire Wire Line
	4310 9665 4310 9290
Connection ~ 4310 9290
Wire Wire Line
	4310 9290 3665 9290
Wire Wire Line
	4410 9665 4410 9390
Connection ~ 4410 9390
Wire Wire Line
	4410 9390 5685 9390
Wire Wire Line
	5915 9630 5915 8510
Connection ~ 5915 8510
Wire Wire Line
	5915 8510 7130 8510
Wire Wire Line
	6680 9630 6680 7810
Connection ~ 6680 7810
Wire Wire Line
	6680 7810 4540 7810
Wire Wire Line
	6015 9630 6015 8410
Connection ~ 6015 8410
Wire Wire Line
	6015 8410 5220 8410
Wire Wire Line
	6115 9630 6115 8310
Connection ~ 6115 8310
Wire Wire Line
	6115 8310 7130 8310
Wire Wire Line
	6215 9630 6215 8210
Connection ~ 6215 8210
Wire Wire Line
	6215 8210 7130 8210
Wire Wire Line
	6380 9630 6380 8110
Connection ~ 6380 8110
Wire Wire Line
	6380 8110 7130 8110
Wire Wire Line
	6480 9630 6480 8010
Connection ~ 6480 8010
Wire Wire Line
	6480 8010 4810 8010
Wire Wire Line
	6580 9630 6580 7910
Connection ~ 6580 7910
Wire Wire Line
	6580 7910 7130 7910
$Comp
L Device:LED_Small D8
U 1 1 60EA30F7
P 5725 3795
F 0 "D8" V 5550 3730 50  0000 L CNN
F 1 "Red" V 5795 3735 50  0000 L CNN
F 2 "LED_SMD:LED_0603_1608Metric" V 5725 3795 50  0001 C CNN
F 3 "~" V 5725 3795 50  0001 C CNN
	1    5725 3795
	0    -1   -1   0   
$EndComp
Text GLabel 5470 2165 0    50   Input ~ 0
LED_GPIO18
Wire Wire Line
	5470 2165 5725 2165
Wire Wire Line
	5725 2165 5725 3195
Wire Wire Line
	5725 3595 5725 3695
Wire Wire Line
	5725 3895 5725 4080
Wire Wire Line
	5725 4080 5625 4080
Connection ~ 5625 4080
NoConn ~ 3665 3160
NoConn ~ 3665 3260
NoConn ~ 3665 3360
$Comp
L Transistor_FET:AO3400A Q4
U 1 1 6111B6E3
P 8380 6015
F 0 "Q4" H 8585 6061 50  0000 L CNN
F 1 "AO3400A" H 8585 5970 50  0000 L CNN
F 2 "Package_TO_SOT_SMD:SOT-23" H 8580 5940 50  0001 L CIN
F 3 "http://www.aosmd.com/pdfs/datasheet/AO3400A.pdf" H 8380 6015 50  0001 L CNN
	1    8380 6015
	-1   0    0    -1  
$EndComp
Wire Wire Line
	8280 5815 7830 5815
Wire Wire Line
	7830 5815 7830 6610
Wire Wire Line
	8170 10185 7830 10185
Wire Wire Line
	7830 10185 7830 9610
Wire Wire Line
	8925 6015 10160 6015
$EndSCHEMATC
